%YAML 1.1
%TAG !u! tag:unity3d.com,2011:
--- !u!21 &2100000
Material:
  serializedVersion: 6
  m_ObjectHideFlags: 0
  m_CorrespondingSourceObject: {fileID: 0}
  m_PrefabInstance: {fileID: 0}
  m_PrefabAsset: {fileID: 0}
  m_Name: TitanForge_Alchemy_Material_03
  m_Shader: {fileID: 4800000, guid: a20ea65585f4ac1449b2008554b08e6c, type: 3}
  m_ShaderKeywords: 
  m_LightmapFlags: 0
  m_EnableInstancingVariants: 0
  m_DoubleSidedGI: 0
  m_CustomRenderQueue: -1
  stringTagMap: {}
  disabledShaderPasses: []
  m_SavedProperties:
    serializedVersion: 3
    m_TexEnvs:
    - _BumpMap:
        m_Texture: {fileID: 0}
        m_Scale: {x: 1, y: 1}
        m_Offset: {x: 0, y: 0}
    - _ColorMask:
        m_Texture: {fileID: 2800000, guid: 0c0c1faa7e819e3469eb61ee6e01ffa9, type: 3}
        m_Scale: {x: 1, y: 1}
        m_Offset: {x: 0, y: 0}
    - _DetailAlbedoMap:
        m_Texture: {fileID: 0}
        m_Scale: {x: 1, y: 1}
        m_Offset: {x: 0, y: 0}
    - _DetailMask:
        m_Texture: {fileID: 0}
        m_Scale: {x: 1, y: 1}
        m_Offset: {x: 0, y: 0}
    - _DetailNormalMap:
        m_Texture: {fileID: 0}
        m_Scale: {x: 1, y: 1}
        m_Offset: {x: 0, y: 0}
    - _EmissionMap:
        m_Texture: {fileID: 0}
        m_Scale: {x: 1, y: 1}
        m_Offset: {x: 0, y: 0}
    - _MainTex:
        m_Texture: {fileID: 2800000, guid: 8a41a02f7ff1643459dc4b13fbdc1dc2, type: 3}
        m_Scale: {x: 1, y: 1}
        m_Offset: {x: 0, y: 0}
    - _MetallicGlossMap:
        m_Texture: {fileID: 0}
        m_Scale: {x: 1, y: 1}
        m_Offset: {x: 0, y: 0}
    - _MetallicMask:
        m_Texture: {fileID: 2800000, guid: b201c2c6dcfd5c2478ba00fb989c7bab, type: 3}
        m_Scale: {x: 1, y: 1}
        m_Offset: {x: 0, y: 0}
    - _MetallicMask2:
        m_Texture: {fileID: 2800000, guid: b201c2c6dcfd5c2478ba00fb989c7bab, type: 3}
        m_Scale: {x: 1, y: 1}
        m_Offset: {x: 0, y: 0}
    - _OcclusionMap:
        m_Texture: {fileID: 0}
        m_Scale: {x: 1, y: 1}
        m_Offset: {x: 0, y: 0}
    - _ParallaxMap:
        m_Texture: {fileID: 0}
        m_Scale: {x: 1, y: 1}
        m_Offset: {x: 0, y: 0}
    - _TextureAlbedo:
        m_Texture: {fileID: 2800000, guid: 8a41a02f7ff1643459dc4b13fbdc1dc2, type: 3}
        m_Scale: {x: 1, y: 1}
        m_Offset: {x: 0, y: 0}
    - _texcoord:
        m_Texture: {fileID: 0}
        m_Scale: {x: 1, y: 1}
        m_Offset: {x: 0, y: 0}
    m_Floats:
    - _BumpScale: 1
    - _Cutoff: 0.5
    - _DetailNormalMapScale: 1
    - _DstBlend: 0
    - _Emission: 0
    - _Emission2: 1
    - _GemstoneSmoothness: 0
    - _GemstoneSmoothness2: 0
    - _GlossMapScale: 1
    - _Glossiness: 0
    - _GlossyReflections: 1
    - _MetalSmoothness: 0.6
    - _MetalSmoothness2: 0
    - _Metallic: 0.6
    - _Metallic2: 0
    - _Mode: 0
    - _OcclusionStrength: 1
    - _Parallax: 0.02
    - _Smoothness: 0
    - _Smoothness2: 0
    - _SmoothnessTextureChannel: 0
    - _SpecularHighlights: 1
    - _SrcBlend: 1
    - _TransAmbient: 0.2
    - _TransDirect: 1
    - _TransNormalDistortion: 0.1
    - _TransScattering: 2
    - _TransShadow: 0.9
    - _Translucency: 1
    - _Transparency: 1
    - _UVSec: 0
    - _ZWrite: 1
    - __dirty: 0
    m_Colors:
    - _AlbedoColor: {r: 1, g: 1, b: 1, a: 0}
    - _ClothColor: {r: 0.6117647, g: 0.5098035, b: 0.38823512, a: 1}
    - _Color: {r: 1, g: 1, b: 1, a: 1}
    - _Color1: {r: 0.37647057, g: 0.37647057, b: 0.37647057, a: 1}
    - _Color2: {r: 0.5921569, g: 0.60784316, b: 0.63529414, a: 1}
    - _Color3: {r: 0.32156864, g: 0.30588236, b: 0.2784314, a: 1}
    - _Color4: {r: 0.21960784, g: 0.32941177, b: 0.27450982, a: 1}
    - _Color5: {r: 0.39757055, g: 0.509434, b: 0.18503019, a: 1}
    - _Color6: {r: 0.4535674, g: 0.5019608, b: 0.38039216, a: 1}
    - _EmissionColor: {r: 0.6, g: 0.68235296, b: 0.16078424, a: 1}
    - _EmissionColor2: {r: 0.59607846, g: 0.68235296, b: 0.16078432, a: 1}
    - _HerbColor: {r: 0.33333313, g: 0.39999983, b: 0.2588233, a: 1}
    - _MetalColor: {r: 0.3725488, g: 0.3725488, b: 0.38823512, a: 1}
    - _PotionColor: {r: 0.62352943, g: 0.16862723, b: 0.1725488, a: 1}
    - _StoneColor: {r: 0.35294098, g: 0.36862722, b: 0.39999983, a: 1}
    - _WoodColor: {r: 0.41960764, g: 0.39607826, b: 0.34509775, a: 1}
