%YAML 1.1
%TAG !u! tag:unity3d.com,2011:
--- !u!1 &984053574285509041
GameObject:
  m_ObjectHideFlags: 0
  m_CorrespondingSourceObject: {fileID: 0}
  m_PrefabInstance: {fileID: 0}
  m_PrefabAsset: {fileID: 0}
  serializedVersion: 6
  m_Component:
  - component: {fileID: 984053574285286801}
  - component: {fileID: 984053574282386865}
  - component: {fileID: 984053574283517809}
  m_Layer: 0
  m_Name: Candle_Sm
  m_TagString: Untagged
  m_Icon: {fileID: 0}
  m_NavMeshLayer: 0
  m_StaticEditorFlags: 0
  m_IsActive: 1
--- !u!4 &984053574285286801
Transform:
  m_ObjectHideFlags: 0
  m_CorrespondingSourceObject: {fileID: 0}
  m_PrefabInstance: {fileID: 0}
  m_PrefabAsset: {fileID: 0}
  m_GameObject: {fileID: 984053574285509041}
  m_LocalRotation: {x: 0, y: -0, z: -0, w: 1}
  m_LocalPosition: {x: -0, y: 0, z: 0}
  m_LocalScale: {x: 1, y: 1, z: 1}
  m_Children:
  - {fileID: 612145858356541995}
  m_Father: {fileID: 0}
  m_RootOrder: 0
  m_LocalEulerAnglesHint: {x: 0, y: 0, z: 0}
--- !u!33 &984053574282386865
MeshFilter:
  m_ObjectHideFlags: 0
  m_CorrespondingSourceObject: {fileID: 0}
  m_PrefabInstance: {fileID: 0}
  m_PrefabAsset: {fileID: 0}
  m_GameObject: {fileID: 984053574285509041}
  m_Mesh: {fileID: 4300000, guid: 37a5910c40d01a847990e65b7068e570, type: 3}
--- !u!23 &984053574283517809
MeshRenderer:
  m_ObjectHideFlags: 0
  m_CorrespondingSourceObject: {fileID: 0}
  m_PrefabInstance: {fileID: 0}
  m_PrefabAsset: {fileID: 0}
  m_GameObject: {fileID: 984053574285509041}
  m_Enabled: 1
  m_CastShadows: 1
  m_ReceiveShadows: 1
  m_DynamicOccludee: 1
  m_MotionVectors: 1
  m_LightProbeUsage: 1
  m_ReflectionProbeUsage: 1
  m_RenderingLayerMask: 1
  m_RendererPriority: 0
  m_Materials:
  - {fileID: 2100000, guid: 87761ff4a9694c540a8709126d16a6a8, type: 2}
  m_StaticBatchInfo:
    firstSubMesh: 0
    subMeshCount: 0
  m_StaticBatchRoot: {fileID: 0}
  m_ProbeAnchor: {fileID: 0}
  m_LightProbeVolumeOverride: {fileID: 0}
  m_ScaleInLightmap: 1
  m_PreserveUVs: 0
  m_IgnoreNormalsForChartDetection: 0
  m_ImportantGI: 0
  m_StitchLightmapSeams: 0
  m_SelectedEditorRenderState: 3
  m_MinimumChartSize: 4
  m_AutoUVMaxDistance: 0.5
  m_AutoUVMaxAngle: 89
  m_LightmapParameters: {fileID: 0}
  m_SortingLayerID: 0
  m_SortingLayer: 0
  m_SortingOrder: 0
--- !u!1001 &4805956597141314461
PrefabInstance:
  m_ObjectHideFlags: 0
  serializedVersion: 2
  m_Modification:
    m_TransformParent: {fileID: 984053574285286801}
    m_Modifications:
    - target: {fileID: 3871240829323432613, guid: ff16d100f69b0864e836de8f79ac9d4b,
        type: 3}
      propertyPath: m_Name
      value: Candle_Effect
      objectReference: {fileID: 0}
    - target: {fileID: 5389954870786449846, guid: ff16d100f69b0864e836de8f79ac9d4b,
        type: 3}
      propertyPath: m_LocalPosition.x
      value: 0.001
      objectReference: {fileID: 0}
    - target: {fileID: 5389954870786449846, guid: ff16d100f69b0864e836de8f79ac9d4b,
        type: 3}
      propertyPath: m_LocalPosition.y
      value: 0.2838
      objectReference: {fileID: 0}
    - target: {fileID: 5389954870786449846, guid: ff16d100f69b0864e836de8f79ac9d4b,
        type: 3}
      propertyPath: m_LocalPosition.z
      value: 0
      objectReference: {fileID: 0}
    - target: {fileID: 5389954870786449846, guid: ff16d100f69b0864e836de8f79ac9d4b,
        type: 3}
      propertyPath: m_LocalRotation.x
      value: 0
      objectReference: {fileID: 0}
    - target: {fileID: 5389954870786449846, guid: ff16d100f69b0864e836de8f79ac9d4b,
        type: 3}
      propertyPath: m_LocalRotation.y
      value: 0
      objectReference: {fileID: 0}
    - target: {fileID: 5389954870786449846, guid: ff16d100f69b0864e836de8f79ac9d4b,
        type: 3}
      propertyPath: m_LocalRotation.z
      value: 0
      objectReference: {fileID: 0}
    - target: {fileID: 5389954870786449846, guid: ff16d100f69b0864e836de8f79ac9d4b,
        type: 3}
      propertyPath: m_LocalRotation.w
      value: 1
      objectReference: {fileID: 0}
    - target: {fileID: 5389954870786449846, guid: ff16d100f69b0864e836de8f79ac9d4b,
        type: 3}
      propertyPath: m_RootOrder
      value: 0
      objectReference: {fileID: 0}
    - target: {fileID: 5389954870786449846, guid: ff16d100f69b0864e836de8f79ac9d4b,
        type: 3}
      propertyPath: m_LocalEulerAnglesHint.x
      value: 0
      objectReference: {fileID: 0}
    - target: {fileID: 5389954870786449846, guid: ff16d100f69b0864e836de8f79ac9d4b,
        type: 3}
      propertyPath: m_LocalEulerAnglesHint.y
      value: 0
      objectReference: {fileID: 0}
    - target: {fileID: 5389954870786449846, guid: ff16d100f69b0864e836de8f79ac9d4b,
        type: 3}
      propertyPath: m_LocalEulerAnglesHint.z
      value: 0
      objectReference: {fileID: 0}
    m_RemovedComponents: []
  m_SourcePrefab: {fileID: 100100000, guid: ff16d100f69b0864e836de8f79ac9d4b, type: 3}
--- !u!4 &612145858356541995 stripped
Transform:
  m_CorrespondingSourceObject: {fileID: 5389954870786449846, guid: ff16d100f69b0864e836de8f79ac9d4b,
    type: 3}
  m_PrefabInstance: {fileID: 4805956597141314461}
  m_PrefabAsset: {fileID: 0}
